<?xml version="1.0" encoding="utf-8"?>
<COLLADA xmlns="http://www.collada.org/2005/11/COLLADASchema" version="1.4.1" xmlns:xsi="http://www.w3.org/2001/XMLSchema-instance">
  <asset>
    <contributor>
      <author>Blender User</author>
      <authoring_tool>Blender 3.0.0 commit date:2021-12-02, commit time:18:35, hash:f1cca3055776</authoring_tool>
    </contributor>
    <created>2022-02-28T16:47:03</created>
    <modified>2022-02-28T16:47:03</modified>
    <unit name="meter" meter="1"/>
    <up_axis>Z_UP</up_axis>
  </asset>
  <library_effects>
    <effect id="Material-effect">
      <profile_COMMON>
        <newparam sid="MuscleCar_uv_gameres_png-surface">
          <surface type="2D">
            <init_from>MuscleCar_uv_gameres_png</init_from>
          </surface>
        </newparam>
        <newparam sid="MuscleCar_uv_gameres_png-sampler">
          <sampler2D>
            <source>MuscleCar_uv_gameres_png-surface</source>
          </sampler2D>
        </newparam>
        <technique sid="common">
          <lambert>
            <emission>
              <color sid="emission">0 0 0 1</color>
            </emission>
            <diffuse>
              <texture texture="MuscleCar_uv_gameres_png-sampler" texcoord="UVMap"/>
            </diffuse>
            <index_of_refraction>
              <float sid="ior">1.45</float>
            </index_of_refraction>
          </lambert>
        </technique>
      </profile_COMMON>
    </effect>
  </library_effects>
  <library_images>
    <image id="MuscleCar_uv_gameres_png" name="MuscleCar_uv_gameres_png">
      <init_from>MuscleCar_uv_gameres.png</init_from>
    </image>
  </library_images>
  <library_materials>
    <material id="Material-material" name="Material">
      <instance_effect url="#Material-effect"/>
    </material>
  </library_materials>
  <library_geometries>
    <geometry id="MuscleCar-mesh" name="MuscleCar">
      <mesh>
        <source id="MuscleCar-mesh-positions">
          <float_array id="MuscleCar-mesh-positions-array" count="273">-0.7344014 0.4385474 2.031241 -0.7344014 0.1210976 2.30588 -0.8408192 0.7451505 -2.265269 -0.8615735 0.1169692 -2.288879 0 0.1340086 2.373599 0 0.7876883 -2.278694 0 0.1169692 -2.288879 0 0.4241784 2.073569 -0.7996917 0.6476884 0.4442425 -0.951 -0.02201771 0.5914248 0 -0.02201771 0.5914248 0 0.6642293 0.6244514 -0.5043297 0.9767294 -1.092238 0 -0.02201771 -0.4689878 0 1 -1.092238 -0.951 -0.01219671 -0.4689877 0 0 -1.35277 -0.951 0 -1.35277 -0.4755 0.6819328 -2.192803 -0.8437397 0 2.075231 -0.7953295 0.6422116 1.251567 0 0 2.137507 0 0.6240084 1.288061 -0.7344014 0.3253871 2.242579 -0.8615735 0.2867031 -2.378326 0 0.322021 2.323996 0 0.2867031 -2.378326 -0.9272456 0.5743561 0.5914248 -0.951 0.6213405 -0.927785 -0.9466378 0.5350227 1.233052 -0.3320663 0.4385474 2.076499 -0.3320663 0.1210976 2.381995 -0.4633793 0.7760686 -2.274667 -0.3585703 0.66047 0.5452378 -0.8125399 0.6819328 -2.187215 -0.3320663 0 2.108777 -0.3585703 0.6422116 1.294767 -0.4755 0.2867031 -2.378326 -0.3320663 0.3253871 2.318695 0 0.6819328 -2.19873 -0.4742356 0.955583 -0.2076792 0 0.984139 -0.143495 -0.9272456 0.599788 -0.2108395 -0.3251229 0.6240084 1.288061 -0.2839489 0.4241784 2.051886 -0.2822816 0.322021 2.302314 -0.2792719 0.1340086 2.351917 -0.6844257 0.4113282 2.060291 -0.6765252 0.4762254 2.252223 -0.3596828 0.4120433 2.090989 -0.368027 0.4820137 2.257405 -0.6767656 0.331026 2.232858 -0.3677865 0.3452807 2.239321 0.7344014 0.4385474 2.031241 0.7344014 0.1210976 2.30588 0.8408192 0.7451505 -2.265269 0.8615735 0.1169692 -2.288879 0.7996917 0.6476884 0.4442425 0.951 -0.02201771 0.5914248 0.5043297 0.9767294 -1.092238 0.951 -0.01219671 -0.4689877 0.951 0 -1.35277 0.4755 0.6819328 -2.192803 0.8437397 0 2.075231 0.7953295 0.6422116 1.251567 0.7344014 0.3253871 2.242579 0.8615735 0.2867031 -2.378326 0.9272456 0.5743561 0.5914248 0.951 0.6213405 -0.927785 0.9466378 0.5350227 1.233052 0.3320663 0.4385474 2.076499 0.3320663 0.1210976 2.381995 0.4633793 0.7760686 -2.274667 0.3585703 0.66047 0.5452378 0.8125399 0.6819328 -2.187215 0.3320663 0 2.108777 0.3585703 0.6422116 1.294767 0.4755 0.2867031 -2.378326 0.3320663 0.3253871 2.318695 0.4742356 0.955583 -0.2076792 0.9272456 0.599788 -0.2108395 0.3251229 0.6240084 1.288061 0.2839489 0.4241784 2.051886 0.2822816 0.322021 2.302314 0.2792719 0.1340086 2.351917 0.6844257 0.4113282 2.060291 0.6765252 0.4762254 2.252223 0.3596828 0.4120433 2.090989 0.368027 0.4820137 2.257405 0.6767656 0.331026 2.232858 0.3677865 0.3452807 2.239321</float_array>
          <technique_common>
            <accessor source="#MuscleCar-mesh-positions-array" count="91" stride="3">
              <param name="X" type="float"/>
              <param name="Y" type="float"/>
              <param name="Z" type="float"/>
            </accessor>
          </technique_common>
        </source>
        <source id="MuscleCar-mesh-normals">
          <float_array id="MuscleCar-mesh-normals-array" count="471">-0.07982689 0.9030973 0.4219515 0 0.2072247 -0.9782934 -0.04451268 0.9646981 -0.2595693 0.481213 0.8763437 0.02134764 -0.5803908 0.8136957 0.0323401 -9.77366e-4 -0.9998884 0.01490765 -0.04607766 0.998614 0.02544063 -0.6172599 0.7855244 0.04406565 0 -0.9998948 0.01450908 0.009412109 0.6554898 0.7551455 -0.02655655 -0.9139023 0.4050649 0.381114 0.8977343 0.2209644 -0.9197201 0.1161925 0.374986 -1 0 0 -0.9991268 0.02450674 0.03384053 -0.9944068 -0.07631546 0.07301539 0 -0.4662106 -0.8846738 -0.1778287 0.2912564 0.9399716 -0.07485991 0.2543877 0.9642007 0 -0.4662095 -0.8846744 -0.02517294 0.9667458 0.2544974 -0.03829729 -0.8690321 0.4932713 -0.01032322 -0.9996366 -0.02490401 -0.6167246 0.7846773 0.06270849 -0.001231968 -0.999898 0.01423949 -0.03055113 0.9995091 0.006945669 -0.004291772 0.9659106 -0.2588406 0 0.2394361 -0.9709122 -0.02900046 0.9255335 0.3775535 0 -0.9922838 -0.1239885 -0.9483299 -0.03484082 0.3153676 -0.0469892 0.7678397 0.6389165 -0.1130811 0.919039 0.3775979 0 -1 0 -0.9992534 0.03863543 3.5764e-4 0 -0.4662085 -0.884675 -0.4738288 0.8801749 0.02790158 -0.1064247 0.9200848 0.3769853 -0.998823 0.03978449 -0.0277487 -0.9980753 -0.02891141 -0.0548619 -0.9506991 0.195759 0.2405195 -0.8086413 0.518634 0.2777017 -0.0215103 0.9985186 0.04998099 0 0.9674403 0.2530993 0.4137198 -0.832314 0.3689032 0.4267113 0.2676774 0.8638671 0.1966221 0.8883031 0.4150392 -0.629451 0.7763872 -0.03184825 -0.09410041 -0.8624036 0.4973983 -0.9943636 0.05985671 -0.08751231 -0.5800246 0.7759266 0.2480114 -0.0107733 0.9215855 -0.388026 -0.01419138 -0.1311252 0.9912642 -0.9990892 -0.004011571 0.04248178 0.9986214 -0.005152821 0.05223774 0.07982689 0.9030973 0.4219515 0 0.2072248 -0.9782934 0.04451268 0.9646981 -0.2595693 -0.481213 0.8763437 0.02134764 0.5803907 0.8136957 0.0323401 9.77366e-4 -0.9998884 0.01490765 0.06234699 0.9979152 0.01668304 0.6172599 0.7855244 0.04406565 -0.00941205 0.6554892 0.7551459 0.02655655 -0.9139023 0.4050649 -0.381114 0.8977344 0.2209644 0.9197201 0.1161925 0.374986 1 0 0 0.9991268 0.02450674 0.03384053 0.9944068 -0.07631546 0.07301539 0.1778287 0.2912564 0.9399716 0.07485991 0.2543877 0.9642007 0.02844995 0.9670702 0.2529149 0.03829729 -0.8690321 0.4932713 0.01032322 -0.9996366 -0.02490401 0.6167246 0.7846773 0.06270849 0.001231968 -0.999898 0.01423949 0.002408802 0.9997006 0.02435255 0.004291772 0.9659106 -0.2588406 0 0.2394357 -0.9709122 0.02900046 0.9255335 0.3775535 0 -0.9922837 -0.1239884 0.9483299 -0.03484082 0.3153676 -0.01252329 0.6552397 0.7553174 0.1130811 0.919039 0.3775979 0.9992069 0.0397998 0.001261591 0.4738288 0.8801749 0.02790158 0.09420871 0.9190005 0.3828354 0.998823 0.03978449 -0.0277487 0.9980753 -0.02891141 -0.0548619 0.9506991 0.195759 0.2405195 0.8086413 0.518634 0.2777017 0.0215103 0.9985186 0.04998099 0 0.9674404 0.2530993 -0.4137198 -0.832314 0.3689032 -0.3179003 0.2466208 0.9154877 -0.4243732 0.8393957 0.3395914 0.629451 0.7763872 -0.03184825 0.09410041 -0.8624036 0.4973983 0.9943636 0.05985671 -0.08751231 0.5800246 0.7759266 0.2480114 0.01077318 0.9215856 -0.3880258 0.01419138 -0.1311258 0.9912642 0.9990892 -0.004011571 0.04248178 -0.9986214 -0.005152821 0.05223774 -0.9804298 0.1698052 -0.09961766 0.9804298 0.1698052 -0.0996176 -0.05302417 0.8803374 0.4713751 -0.0134142 0.1950337 -0.9807048 -0.00344336 0.961075 -0.2762663 -0.4909518 0.8711447 0.008562505 -0.06234699 0.9979152 0.01668304 -0.6131253 0.7889865 0.03972101 -0.008190989 0.603102 0.797622 0.4986764 0.8447704 0.1941257 -0.1778287 0.2912577 0.9399712 -0.07408863 0.2532858 0.9645503 -0.02844995 0.9670702 0.2529149 -0.04233396 -0.871087 0.4893009 0 -0.9999048 -0.0137993 -0.002408802 0.9997006 0.02435255 -0.04137343 0.2080281 -0.9772474 -0.02884298 0.9254699 0.3777217 0.01252329 0.6552397 0.7553174 -0.01032602 -0.9999038 -0.009260594 -0.9992069 0.0397998 0.001261591 -0.09420871 0.9190005 0.3828354 0 0.9981684 0.06049823 -0.0188229 0.9689601 0.2464995 0.3179003 0.2466208 0.9154877 0.4243732 0.8393957 0.3395914 0.02828156 0.9465796 -0.3212275 -0.01463675 -0.1321567 0.9911208 0.05302423 0.8803374 0.4713751 0.0134142 0.1950337 -0.9807048 0.00344336 0.961075 -0.2762663 0.4909517 0.8711448 0.008562564 0.04607766 0.998614 0.02544063 0.6131253 0.7889865 0.03972101 0.008191049 0.603102 0.797622 -0.4986763 0.8447705 0.1941258 0.1778287 0.2912577 0.9399712 0.07408863 0.2532854 0.9645504 0.02517294 0.9667458 0.2544974 0.04233396 -0.8710871 0.4893007 0.03055113 0.9995091 0.006945669 0.04137343 0.2080283 -0.9772474 0.02884298 0.9254699 0.3777216 0.0469892 0.7678397 0.6389165 0.01032602 -0.9999038 -0.009260594 0.9992534 0.03863543 3.5764e-4 0.1064247 0.9200848 0.3769853 0.01882278 0.9689601 0.2464995 -0.4267113 0.2676774 0.8638671 -0.1966221 0.8883031 0.4150392 -0.02828162 0.9465798 -0.3212272 0.01463675 -0.1321572 0.9911208</float_array>
          <technique_common>
            <accessor source="#MuscleCar-mesh-normals-array" count="157" stride="3">
              <param name="X" type="float"/>
              <param name="Y" type="float"/>
              <param name="Z" type="float"/>
            </accessor>
          </technique_common>
        </source>
        <source id="MuscleCar-mesh-map-0">
          <float_array id="MuscleCar-mesh-map-0-array" count="996">0.08198004 0.8716316 0.04992532 0.933903 0.04329568 0.8711029 0.2871593 0.5606932 0.2075638 0.4725765 0.2892485 0.4725711 0.6375155 0.812335 0.8060684 0.8867831 0.638046 0.8885689 0.2200898 0.875817 0.2207707 0.8676581 0.339118 0.8661108 0.6621683 0.3240959 0.5246052 0.3128908 0.6590098 0.3079585 0.8835484 0.6368705 0.8476754 0.6345187 0.8401562 0.530479 0.4804108 0.8887282 0.6375155 0.812335 0.638046 0.8885689 0.4013639 0.3929905 0.2747616 0.3187539 0.4004658 0.316271 0.9068292 0.5304807 0.8835484 0.6368705 0.8401562 0.530479 0.8057338 0.812335 0.8228822 0.8885641 0.8060684 0.8867831 0.5361336 0.4690183 0.4432283 0.4398043 0.5375871 0.4387494 0.08527946 0.8630751 0.2200898 0.875817 0.08198004 0.8716316 0.8464991 0.2374016 0.8327425 0.2719065 0.8039628 0.2176925 0.3557432 0.2157186 0.2747616 0.3187539 0.1993038 0.2157186 0.3557432 0.2157186 0.4004658 0.316271 0.2747616 0.3187539 0.8039628 0.2176925 0.6590098 0.3079585 0.5350236 0.2157186 0.3495889 0.4387586 0.2892485 0.4725711 0.2075638 0.4387811 0.5364676 0.4912069 0.4629395 0.4690119 0.5361336 0.4690183 0.5938779 0.4912315 0.5430445 0.4689344 0.5938779 0.4694269 0.3495889 0.4387586 0.3495958 0.4725523 0.2892485 0.4725711 0.08771228 0.933903 0.2200898 0.875817 0.2274202 0.9348952 0.5430445 0.4689344 0.5938779 0.4386392 0.5938779 0.4694269 0.8401578 0.4561318 0.9068292 0.3941683 0.9068292 0.4561434 0.4004658 0.316271 0.4979284 0.3260943 0.4013639 0.3929905 0.9068292 0.6388846 0.8835484 0.6368705 0.9068292 0.5304807 0.2274202 0.9348952 0.339118 0.8661108 0.3523956 0.9370827 0.638046 0.8885689 0.8060684 0.8867831 0.8063579 0.9218428 0.3462086 0.5557221 0.2892485 0.4725711 0.3495958 0.4725523 0.08298575 0.812335 0.0483548 0.8631693 0.04633146 0.812335 0.9068292 0.3941683 0.8464281 0.328031 0.9068292 0.3280311 0.03688001 0.2645432 0.05135834 0.3216296 0.03971022 0.3279685 0.8063579 0.9218428 0.8228822 0.8885641 0.8231447 0.9278516 0.3523956 0.9370827 0.339118 0.8661108 0.4804108 0.8887282 0.8401562 0.530479 0.9068292 0.4561434 0.9068292 0.5304807 0.5350236 0.2157186 0.4004658 0.316271 0.3557432 0.2157186 0.2075638 0.4387811 0.2892485 0.4725711 0.2075638 0.4725765 0.5246052 0.3128908 0.4979284 0.3260943 0.4004658 0.316271 0.339118 0.8661108 0.4762581 0.812335 0.4804108 0.8887282 0.5350236 0.2157186 0.6590098 0.3079585 0.5246052 0.3128908 0.04832184 0.239978 0.2747616 0.3187539 0.03688001 0.2645432 0.8039628 0.2176925 0.8327425 0.2719065 0.6590098 0.3079585 0.8327425 0.2719065 0.7965998 0.2953965 0.6590098 0.3079585 0.2207707 0.8676581 0.3275292 0.812335 0.339118 0.8661108 0.08527946 0.8630751 0.2211696 0.812335 0.2207707 0.8676581 0.5375871 0.4387494 0.5430445 0.4689344 0.5361336 0.4690183 0.5430445 0.4689344 0.5364676 0.4912069 0.5361336 0.4690183 0.0483548 0.8631693 0.08198004 0.8716316 0.04329568 0.8711029 0.05135834 0.3216296 0.2747616 0.3187539 0.2443559 0.3927466 0.4432283 0.4398043 0.5361336 0.4690183 0.4629395 0.4690119 0.1993038 0.2157186 0.2747616 0.3187539 0.04832184 0.239978 0.6590098 0.3079585 0.7965998 0.2953965 0.6621683 0.3240959 0.07366573 0.7397186 0.04398995 0.6918348 0.07366573 0.6951365 0.4653974 0.5195207 0.5270642 0.493305 0.5270642 0.5195207 0.05506956 0.1008822 0.07666164 0.09335005 0.05553525 0.08360129 0.07666164 0.09335005 0.05553525 0.08360129 0.05506956 0.1008822 0.04992532 0.6907671 0.08198004 0.7530385 0.04329568 0.7535672 0.2075638 0.4725765 0.1279683 0.5606932 0.1258791 0.4725711 0.8060684 0.737887 0.6375155 0.812335 0.638046 0.7361012 0.2200898 0.7488532 0.339118 0.7585594 0.2207707 0.757012 0.5246055 0.3128908 0.6621687 0.3240957 0.6590102 0.3079584 0.93011 0.6368705 0.9735022 0.5304788 0.9659829 0.6345187 0.4804108 0.735942 0.6375155 0.812335 0.4762581 0.812335 0.2747618 0.3187538 0.4013642 0.3929905 0.4004661 0.316271 0.9068292 0.5304807 0.9735022 0.5304788 0.93011 0.6368705 0.8228822 0.736106 0.8057338 0.812335 0.8060684 0.737887 0.6516222 0.4690183 0.6501688 0.4387494 0.7445276 0.4398044 0.2200898 0.7488532 0.08527946 0.761595 0.08198004 0.7530385 0.8464991 0.2374016 0.8039628 0.2176925 0.8327425 0.2719064 0.3557435 0.2157186 0.1993039 0.2157186 0.2747618 0.3187538 0.3557435 0.2157186 0.2747618 0.3187538 0.4004661 0.316271 0.8039628 0.2176925 0.5350239 0.2157186 0.6590102 0.3079584 0.06553882 0.4387586 0.2075638 0.4387811 0.1258791 0.4725711 0.7248162 0.4690119 0.6512884 0.4912069 0.6516222 0.4690183 0.6447113 0.4689344 0.5938779 0.4912315 0.5938779 0.4694269 0.06553882 0.4387586 0.1258791 0.4725711 0.0655319 0.4725524 0.08771228 0.6907671 0.2200898 0.7488532 0.08198004 0.7530385 0.5938779 0.4386392 0.6447113 0.4689344 0.5938779 0.4694269 0.9068292 0.3941683 0.9735006 0.4561316 0.9068292 0.4561434 0.4004661 0.316271 0.4013642 0.3929905 0.4979287 0.3260943 0.9068292 0.6388846 0.9068292 0.5304807 0.93011 0.6368705 0.2274202 0.6897749 0.339118 0.7585594 0.2200898 0.7488532 0.638046 0.7361012 0.8063579 0.7028273 0.8060684 0.737887 0.1258791 0.4725711 0.068919 0.5557221 0.0655319 0.4725524 0.0483548 0.7615008 0.08298575 0.812335 0.04633146 0.812335 0.9068292 0.3941683 0.9672303 0.328031 0.9734999 0.3941678 0.03688007 0.2645431 0.0397101 0.3279684 0.05135828 0.3216295 0.8063579 0.7028273 0.8228822 0.736106 0.8060684 0.737887 0.3523956 0.6875874 0.4804108 0.735942 0.339118 0.7585594 0.9068292 0.4561434 0.9735022 0.5304788 0.9068292 0.5304807 0.5350239 0.2157186 0.4004661 0.316271 0.5246055 0.3128908 0.2075638 0.4387811 0.2075638 0.4725765 0.1258791 0.4725711 0.5246055 0.3128908 0.4004661 0.316271 0.4979287 0.3260943 0.339118 0.7585594 0.4762581 0.812335 0.3275292 0.812335 0.5350239 0.2157186 0.5246055 0.3128908 0.6590102 0.3079584 0.04832178 0.2399777 0.03688007 0.2645431 0.2747618 0.3187538 0.8039628 0.2176925 0.6590102 0.3079584 0.8327425 0.2719064 0.8327425 0.2719064 0.6590102 0.3079584 0.7966002 0.2953963 0.3275292 0.812335 0.2207707 0.757012 0.339118 0.7585594 0.2211696 0.812335 0.08527946 0.761595 0.2207707 0.757012 0.6501688 0.4387494 0.6516222 0.4690183 0.6447113 0.4689344 0.6447113 0.4689344 0.6512884 0.4912069 0.6448493 0.4912862 0.0483548 0.7615008 0.08198004 0.7530385 0.08527946 0.761595 0.05135828 0.3216295 0.244356 0.3927466 0.2747618 0.3187538 0.7445276 0.4398044 0.7248162 0.4690119 0.6516222 0.4690183 0.1993039 0.2157186 0.04832178 0.2399777 0.2747618 0.3187538 0.6590102 0.3079584 0.6621687 0.3240957 0.7966002 0.2953963 0.04398989 0.9332144 0.07366579 0.8853312 0.07366579 0.9299127 0.6607872 0.4933051 0.722454 0.5195208 0.6606181 0.5192791 0.05553525 0.08360129 0.05506956 0.1008822 0.07666164 0.09335005 0.07666164 0.09335005 0.05553525 0.08360129 0.05506956 0.1008822 0.03688001 0.2645432 0.2747616 0.3187539 0.05135834 0.3216296 0.2747618 0.3187538 0.03688007 0.2645431 0.05135828 0.3216295 0.08198004 0.8716316 0.08771228 0.933903 0.04992532 0.933903 0.2871593 0.5606932 0.2075638 0.5622293 0.2075638 0.4725765 0.6375155 0.812335 0.8057338 0.812335 0.8060684 0.8867831 0.6621683 0.3240959 0.4979284 0.3260943 0.5246052 0.3128908 0.4804108 0.8887282 0.4762581 0.812335 0.6375155 0.812335 0.4013639 0.3929905 0.2443559 0.3927466 0.2747616 0.3187539 0.8057338 0.812335 0.8223122 0.812335 0.8228822 0.8885641 0.08527946 0.8630751 0.2207707 0.8676581 0.2200898 0.875817 0.5364676 0.4912069 0.4600439 0.4912484 0.4629395 0.4690119 0.5938779 0.4912315 0.5429066 0.4912862 0.5430445 0.4689344 0.08771228 0.933903 0.08198004 0.8716316 0.2200898 0.875817 0.5430445 0.4689344 0.5375871 0.4387494 0.5938779 0.4386392 0.8401578 0.4561318 0.8401585 0.3941678 0.9068292 0.3941683 0.2274202 0.9348952 0.2200898 0.875817 0.339118 0.8661108 0.3462086 0.5557221 0.2871593 0.5606932 0.2892485 0.4725711 0.08298575 0.812335 0.08527946 0.8630751 0.0483548 0.8631693 0.9068292 0.3941683 0.8401585 0.3941678 0.8464281 0.328031 0.8063579 0.9218428 0.8060684 0.8867831 0.8228822 0.8885641 0.8401562 0.530479 0.8401578 0.4561318 0.9068292 0.4561434 0.5350236 0.2157186 0.5246052 0.3128908 0.4004658 0.316271 0.339118 0.8661108 0.3275292 0.812335 0.4762581 0.812335 0.2207707 0.8676581 0.2211696 0.812335 0.3275292 0.812335 0.08527946 0.8630751 0.08298575 0.812335 0.2211696 0.812335 0.5430445 0.4689344 0.5429066 0.4912862 0.5364676 0.4912069 0.0483548 0.8631693 0.08527946 0.8630751 0.08198004 0.8716316 0.07366573 0.7397186 0.03743422 0.7438189 0.04398995 0.6918348 0.4653974 0.5195207 0.4653974 0.4905893 0.5270642 0.493305 0.04992532 0.6907671 0.08771228 0.6907671 0.08198004 0.7530385 0.2075638 0.4725765 0.2075638 0.5622293 0.1279683 0.5606932 0.8060684 0.737887 0.8057338 0.812335 0.6375155 0.812335 0.5246055 0.3128908 0.4979287 0.3260943 0.6621687 0.3240957 0.4804108 0.735942 0.638046 0.7361012 0.6375155 0.812335 0.2747618 0.3187538 0.244356 0.3927466 0.4013642 0.3929905 0.8228822 0.736106 0.8223122 0.812335 0.8057338 0.812335 0.2200898 0.7488532 0.2207707 0.757012 0.08527946 0.761595 0.7248162 0.4690119 0.7277119 0.4912484 0.6512884 0.4912069 0.6447113 0.4689344 0.6448493 0.4912862 0.5938779 0.4912315 0.08771228 0.6907671 0.2274202 0.6897749 0.2200898 0.7488532 0.5938779 0.4386392 0.6501688 0.4387494 0.6447113 0.4689344 0.9068292 0.3941683 0.9734999 0.3941678 0.9735006 0.4561316 0.2274202 0.6897749 0.3523956 0.6875874 0.339118 0.7585594 0.1258791 0.4725711 0.1279683 0.5606932 0.068919 0.5557221 0.0483548 0.7615008 0.08527946 0.761595 0.08298575 0.812335 0.9068292 0.3941683 0.9068292 0.3280311 0.9672303 0.328031 0.8063579 0.7028273 0.8231447 0.6968185 0.8228822 0.736106 0.9068292 0.4561434 0.9735006 0.4561316 0.9735022 0.5304788 0.5350239 0.2157186 0.3557435 0.2157186 0.4004661 0.316271 0.339118 0.7585594 0.4804108 0.735942 0.4762581 0.812335 0.3275292 0.812335 0.2211696 0.812335 0.2207707 0.757012 0.2211696 0.812335 0.08298575 0.812335 0.08527946 0.761595 0.6447113 0.4689344 0.6516222 0.4690183 0.6512884 0.4912069 0.0483548 0.7615008 0.04329568 0.7535672 0.08198004 0.7530385 0.04398989 0.9332144 0.03743422 0.8812304 0.07366579 0.8853312 0.6607872 0.4933051 0.722454 0.4905893 0.722454 0.5195208</float_array>
          <technique_common>
            <accessor source="#MuscleCar-mesh-map-0-array" count="498" stride="2">
              <param name="S" type="float"/>
              <param name="T" type="float"/>
            </accessor>
          </technique_common>
        </source>
        <vertices id="MuscleCar-mesh-vertices">
          <input semantic="POSITION" source="#MuscleCar-mesh-positions"/>
        </vertices>
        <triangles material="Material-material" count="166">
          <input semantic="VERTEX" source="#MuscleCar-mesh-vertices" offset="0"/>
          <input semantic="NORMAL" source="#MuscleCar-mesh-normals" offset="1"/>
          <input semantic="TEXCOORD" source="#MuscleCar-mesh-map-0" offset="2" set="0"/>
          <p>30 0 0 23 0 1 38 0 2 32 1 3 26 1 4 37 1 5 14 2 6 18 2 7 12 2 8 36 3 9 43 3 10 33 3 11 20 4 12 27 4 13 29 4 14 35 5 15 19 5 16 9 5 17 40 6 18 14 6 19 12 6 20 40 7 21 28 7 22 42 7 23 10 8 24 35 8 25 9 8 26 39 9 27 32 9 28 18 9 29 31 10 30 19 10 31 35 10 32 44 11 33 36 11 34 30 11 35 1 12 36 23 12 37 19 12 38 15 13 39 28 13 40 17 13 41 15 14 42 42 14 43 28 14 44 19 15 45 29 15 46 9 15 47 3 16 48 37 16 49 6 16 50 38 17 51 1 17 52 31 17 53 25 18 54 46 18 55 4 18 56 3 19 57 24 19 58 37 19 59 0 20 60 36 20 61 20 20 62 46 21 63 21 21 64 4 21 65 15 22 66 16 22 67 13 22 68 42 23 69 8 23 70 40 23 71 21 24 72 35 24 73 10 24 74 20 25 75 33 25 76 8 25 77 12 26 78 18 26 79 34 26 80 2 27 81 37 27 82 24 27 83 7 28 84 45 28 85 25 28 86 16 29 87 3 29 88 6 29 89 24 30 90 34 30 91 2 30 92 34 31 93 32 31 94 2 31 95 8 32 96 33 32 97 40 32 98 9 33 99 13 33 100 10 33 101 9 34 102 42 34 103 15 34 104 6 35 105 37 35 106 26 35 107 27 36 108 8 36 109 42 36 110 33 37 111 41 37 112 40 37 113 9 38 114 29 38 115 27 38 116 3 39 117 28 39 118 24 39 119 19 40 120 23 40 121 29 40 122 23 41 123 0 41 124 29 41 125 43 42 126 11 42 127 33 42 128 44 43 129 22 43 130 43 43 131 35 44 132 46 44 133 31 44 134 46 45 135 38 45 136 31 45 137 45 46 138 30 46 139 38 46 140 34 47 141 28 47 142 12 47 143 19 48 144 31 48 145 1 48 146 17 49 147 28 49 148 3 49 149 29 50 150 0 50 151 20 50 152 49 51 153 48 51 154 50 51 155 48 52 156 52 52 157 50 52 158 48 53 159 47 53 160 51 53 161 49 54 162 50 54 163 52 54 164 65 55 165 70 55 166 78 55 167 26 56 168 72 56 169 77 56 170 62 57 171 14 57 172 59 57 173 76 58 174 73 58 175 81 58 176 67 59 177 64 59 178 69 59 179 75 60 180 58 60 181 63 60 182 79 61 183 14 61 184 41 61 185 68 62 186 79 62 187 80 62 188 10 8 189 58 8 190 75 8 191 72 63 192 39 63 193 62 63 194 71 64 195 75 64 196 63 64 197 76 65 198 82 65 199 70 65 200 54 66 201 63 66 202 65 66 203 60 67 204 61 67 205 68 67 206 60 68 207 68 68 208 80 68 209 63 69 210 58 69 211 69 69 212 56 16 213 6 16 214 77 16 215 54 70 216 78 70 217 71 70 218 84 71 219 25 71 220 4 71 221 56 19 222 77 19 223 66 19 224 53 72 225 76 72 226 70 72 227 21 73 228 84 73 229 4 73 230 16 74 231 60 74 232 13 74 233 80 75 234 79 75 235 57 75 236 21 76 237 10 76 238 75 76 239 64 77 240 73 77 241 76 77 242 59 78 243 74 78 244 62 78 245 77 79 246 55 79 247 66 79 248 83 80 249 7 80 250 25 80 251 16 81 252 56 81 253 61 81 254 66 82 255 55 82 256 74 82 257 74 83 258 72 83 259 62 83 260 57 84 261 79 84 262 73 84 263 13 33 264 58 33 265 10 33 266 58 85 267 80 85 268 67 85 269 6 35 270 26 35 271 77 35 272 67 86 273 80 86 274 57 86 275 73 87 276 41 87 277 11 87 278 58 88 279 67 88 280 69 88 281 56 89 282 66 89 283 68 89 284 63 90 285 69 90 286 65 90 287 65 91 288 69 91 289 53 91 290 11 92 291 81 92 292 73 92 293 22 93 294 82 93 295 81 93 296 75 94 297 71 94 298 84 94 299 84 95 300 78 95 301 83 95 302 83 96 303 70 96 304 82 96 305 74 97 306 59 97 307 68 97 308 63 98 309 54 98 310 71 98 311 61 99 312 56 99 313 68 99 314 69 100 315 64 100 316 53 100 317 86 101 318 87 101 319 88 101 320 90 102 321 86 102 322 88 102 323 86 103 324 89 103 325 85 103 326 87 104 327 90 104 328 88 104 329 24 105 330 28 105 331 34 105 332 68 106 333 66 106 334 74 106 335 30 107 336 0 107 337 23 107 338 32 108 339 5 108 340 26 108 341 14 109 342 39 109 343 18 109 344 20 110 345 8 110 346 27 110 347 40 111 348 41 111 349 14 111 350 40 112 351 12 112 352 28 112 353 39 113 354 5 113 355 32 113 356 44 114 357 43 114 358 36 114 359 38 115 360 23 115 361 1 115 362 25 116 363 45 116 364 46 116 365 0 117 366 30 117 367 36 117 368 46 118 369 35 118 370 21 118 371 15 119 372 17 119 373 16 119 374 20 120 375 36 120 376 33 120 377 2 121 378 32 121 379 37 121 380 7 122 381 44 122 382 45 122 383 16 81 384 17 81 385 3 81 386 34 123 387 18 123 388 32 123 389 9 124 390 15 124 391 13 124 392 9 125 393 27 125 394 42 125 395 33 126 396 11 126 397 41 126 398 43 127 399 22 127 400 11 127 401 44 128 402 7 128 403 22 128 404 46 129 405 45 129 406 38 129 407 45 130 408 44 130 409 30 130 410 49 131 411 47 131 412 48 131 413 48 132 414 51 132 415 52 132 416 65 133 417 53 133 418 70 133 419 26 134 420 5 134 421 72 134 422 62 135 423 39 135 424 14 135 425 67 136 426 57 136 427 64 136 428 79 137 429 59 137 430 14 137 431 68 138 432 59 138 433 79 138 434 72 139 435 5 139 436 39 139 437 76 140 438 81 140 439 82 140 440 54 141 441 65 141 442 78 141 443 84 142 444 83 142 445 25 142 446 53 143 447 64 143 448 76 143 449 21 144 450 75 144 451 84 144 452 16 119 453 61 119 454 60 119 455 64 145 456 57 145 457 73 145 458 77 146 459 72 146 460 55 146 461 83 147 462 82 147 463 7 147 464 16 29 465 6 29 466 56 29 467 74 148 468 55 148 469 72 148 470 13 149 471 60 149 472 58 149 473 58 150 474 60 150 475 80 150 476 73 151 477 79 151 478 41 151 479 11 127 480 22 127 481 81 127 482 22 152 483 7 152 484 82 152 485 84 153 486 71 153 487 78 153 488 83 154 489 78 154 490 70 154 491 86 155 492 85 155 493 87 155 494 90 156 495 89 156 496 86 156 497</p>
        </triangles>
      </mesh>
    </geometry>
  </library_geometries>
  <library_visual_scenes>
    <visual_scene id="Scene" name="Scene">
      <node id="MuscleCar" name="MuscleCar" type="NODE">
        <matrix sid="transform">1 0 0 0 0 1 0 0 0 0 1 0 0 0 0 1</matrix>
        <instance_geometry url="#MuscleCar-mesh" name="MuscleCar">
          <bind_material>
            <technique_common>
              <instance_material symbol="Material-material" target="#Material-material">
                <bind_vertex_input semantic="UVMap" input_semantic="TEXCOORD" input_set="0"/>
              </instance_material>
            </technique_common>
          </bind_material>
        </instance_geometry>
      </node>
    </visual_scene>
  </library_visual_scenes>
  <scene>
    <instance_visual_scene url="#Scene"/>
  </scene>
</COLLADA>